{
  "project_info": {
    "project_number": "653708886657",
    "project_id": "crud-4bb5b",
    "storage_bucket": "crud-4bb5b.appspot.com"
  },
  "client": [
    {
      "client_info": {
        "mobilesdk_app_id": "1:653708886657:android:c8ecde5672c835fcf3c380",
        "android_client_info": {
          "package_name": "com.medication.firebaseapp"
        }
      },
      "oauth_client": [
        {
          "client_id": "653708886657-od3ggiii46eui9mca86o671nr9f6o53m.apps.googleusercontent.com",
          "client_type": 3
        }
      ],
      "api_key": [
        {
          "current_key": "AIzaSyDyCKZAQMlPbVJ9cvJi8wTBT3quArymRjE"
        }
      ],
      "services": {
        "appinvite_service": {
          "other_platform_oauth_client": [
            {
              "client_id": "653708886657-od3ggiii46eui9mca86o671nr9f6o53m.apps.googleusercontent.com",
              "client_type": 3
            }
          ]
        }
      }
    }
  ],
  "configuration_version": "1"
}